\relax 
\catcode `"\active 
\babel@aux{ngerman}{}
\babel@aux{british}{}
\@writefile{toc}{\contentsline {section}{\numberline {1}Short Summary of the Project}{3}\protected@file@percent }
\@writefile{toc}{\contentsline {section}{\numberline {2}Responsibilities and Address}{3}\protected@file@percent }
\citation{Merletti2004}
\citation{Merletti2003}
\citation{Holobar2007}
\citation{Falla2014}
\citation{Testa2017}
\citation{Yanagisawa2017}
\citation{Fujita2007}
\citation{Gundermann2012}
\citation{Fry2010}
\citation{HENNEMAN1965}
\citation{Yanagisawa2017}
\citation{Loenneke2012}
\citation{Abe2012}
\citation{Thiebaud2013}
\citation{Yavuz2015}
\citation{Erimaki2008}
\@writefile{toc}{\contentsline {section}{\numberline {3}Scientific background}{4}\protected@file@percent }
\@writefile{toc}{\contentsline {subsection}{\numberline {3.1}Electromyography and external pressure}{4}\protected@file@percent }
\@writefile{toc}{\contentsline {subsection}{\numberline {3.2}Blood flow restriction}{4}\protected@file@percent }
\@writefile{toc}{\contentsline {subsubsection}{\numberline {3.2.1}Metabolic effect of BFR}{4}\protected@file@percent }
\@writefile{toc}{\contentsline {subsubsection}{\numberline {3.2.2}BFR and motor control}{4}\protected@file@percent }
\citation{Yasuda2013}
\citation{Yasuda2014}
\citation{Merletti1984}
\citation{Kernell1982}
\citation{Kernell1982a}
\citation{Spielmann1993}
\citation{Sawczuk1997}
\citation{Bongiovanni1990}
\citation{Gandevia1990}
\citation{Macefield1991}
\citation{Macefield1993}
\citation{Gandevia1996}
\citation{Taylor2000}
\citation{Garland2002}
\citation{Grey2001}
\citation{Yavuz2015}
\citation{Yanagisawa2017}
\citation{Hermens2000}
\@writefile{toc}{\contentsline {subsection}{\numberline {3.3}Current project}{5}\protected@file@percent }
\@writefile{toc}{\contentsline {subsection}{\numberline {3.4}Experimental description}{5}\protected@file@percent }
\@writefile{toc}{\contentsline {subsubsection}{\numberline {3.4.1}Preparation}{5}\protected@file@percent }
\@writefile{toc}{\contentsline {subsubsection}{\numberline {3.4.2}Warm up and familiarization protocol}{6}\protected@file@percent }
\newlabel{warmup}{{3.4.2}{6}}
\@writefile{toc}{\contentsline {subsubsection}{\numberline {3.4.3}MVC protocol}{6}\protected@file@percent }
\newlabel{MVC_recording}{{3.4.3}{6}}
\@writefile{toc}{\contentsline {subsubsection}{\numberline {3.4.4}Voluntary protocol}{6}\protected@file@percent }
\newlabel{voluntary}{{3.4.4}{6}}
\@writefile{toc}{\contentsline {subsubsection}{\numberline {3.4.5}Stimulation protocol}{6}\protected@file@percent }
\newlabel{stimulate}{{3.4.5}{6}}
\citation{Bloomfield1994}
\citation{Yanagisawa2017}
\@writefile{toc}{\contentsline {subsubsection}{\numberline {3.4.6}Fatiguing protocol}{7}\protected@file@percent }
\newlabel{fatigue}{{3.4.6}{7}}
\@writefile{toc}{\contentsline {subsubsection}{\numberline {3.4.7}Medical imaging}{7}\protected@file@percent }
\@writefile{toc}{\contentsline {subsection}{\numberline {3.5}Experimental Protocol}{7}\protected@file@percent }
\@writefile{toc}{\contentsline {subsection}{\numberline {3.6}Risk/benefit analysis}{7}\protected@file@percent }
\@writefile{toc}{\contentsline {subsection}{\numberline {3.7}Summary}{8}\protected@file@percent }
\@writefile{toc}{\contentsline {section}{\numberline {4}Aim of the project}{8}\protected@file@percent }
\@writefile{toc}{\contentsline {subsection}{\numberline {4.1}Design of the project}{8}\protected@file@percent }
\@writefile{toc}{\contentsline {subsection}{\numberline {4.2}Outcome Measures}{8}\protected@file@percent }
\@writefile{toc}{\contentsline {section}{\numberline {5}Subjects and recruitment}{9}\protected@file@percent }
\@writefile{toc}{\contentsline {subsection}{\numberline {5.1}Number of subjects for the duration of the project}{9}\protected@file@percent }
\@writefile{toc}{\contentsline {subsection}{\numberline {5.2}Subjects selection}{9}\protected@file@percent }
\@writefile{toc}{\contentsline {subsubsection}{\numberline {5.2.1}Inclusion criteria}{9}\protected@file@percent }
\@writefile{toc}{\contentsline {subsubsection}{\numberline {5.2.2}Exclusion criteria}{9}\protected@file@percent }
\newlabel{exclusion}{{5.2.2}{9}}
\@writefile{toc}{\contentsline {subsubsection}{\numberline {5.2.3}Personal data}{9}\protected@file@percent }
\@writefile{toc}{\contentsline {subsubsection}{\numberline {5.2.4}Measurement parameters and laboratory parameters}{9}\protected@file@percent }
\@writefile{toc}{\contentsline {section}{\numberline {6}Trial Medication}{9}\protected@file@percent }
\@writefile{toc}{\contentsline {section}{\numberline {7}Treatment of the Subjects}{10}\protected@file@percent }
\@writefile{toc}{\contentsline {subsection}{\numberline {7.1}Admission to the study}{10}\protected@file@percent }
\newlabel{subjrecr}{{7.1}{10}}
\@writefile{toc}{\contentsline {subsection}{\numberline {7.2}Hospitalisation}{10}\protected@file@percent }
\@writefile{toc}{\contentsline {subsection}{\numberline {7.3}Alimentation}{10}\protected@file@percent }
\@writefile{toc}{\contentsline {subsection}{\numberline {7.4}Concomitant Therapy}{10}\protected@file@percent }
\@writefile{toc}{\contentsline {subsection}{\numberline {7.5}Documentation}{10}\protected@file@percent }
\@writefile{toc}{\contentsline {section}{\numberline {8}Methods}{10}\protected@file@percent }
\@writefile{toc}{\contentsline {subsection}{\numberline {8.1}Electromyography (EMG), joint torque, blood pressure measurements and imaging}{10}\protected@file@percent }
\newlabel{recording_methods}{{8.1}{10}}
\@writefile{toc}{\contentsline {subsection}{\numberline {8.2}Validation of the Measurement Methods}{11}\protected@file@percent }
\@writefile{toc}{\contentsline {subsection}{\numberline {8.3}Trustworthiness of the Data}{11}\protected@file@percent }
\newlabel{Trustworthiness}{{8.3}{11}}
\@writefile{toc}{\contentsline {subsection}{\numberline {8.4}Recording of the Compliance}{11}\protected@file@percent }
\@writefile{toc}{\contentsline {subsection}{\numberline {8.5}Safety Committee}{11}\protected@file@percent }
\@writefile{toc}{\contentsline {subsection}{\numberline {8.6}Interruption of the study}{11}\protected@file@percent }
\@writefile{toc}{\contentsline {subsubsection}{\numberline {8.6.1}Interruption Criteria}{11}\protected@file@percent }
\@writefile{toc}{\contentsline {subsubsection}{\numberline {8.6.2}Interruption of One Subject (drop-out)}{11}\protected@file@percent }
\@writefile{toc}{\contentsline {subsubsection}{\numberline {8.6.3}Interruption of the Whole Project}{12}\protected@file@percent }
\@writefile{toc}{\contentsline {section}{\numberline {9}Changes in the Case Record Form}{12}\protected@file@percent }
\@writefile{toc}{\contentsline {section}{\numberline {10}Ethical and Legal Issues}{12}\protected@file@percent }
\@writefile{toc}{\contentsline {subsection}{\numberline {10.1}Legal Regulation}{12}\protected@file@percent }
\@writefile{toc}{\contentsline {subsection}{\numberline {10.2}Approval of the Ethics Committee}{12}\protected@file@percent }
\@writefile{toc}{\contentsline {subsection}{\numberline {10.3}Insurance}{12}\protected@file@percent }
\@writefile{toc}{\contentsline {subsection}{\numberline {10.4}Principal Investigator of the Research Project}{12}\protected@file@percent }
\@writefile{toc}{\contentsline {subsection}{\numberline {10.5}Investigator of the Research Project}{12}\protected@file@percent }
\@writefile{toc}{\contentsline {subsection}{\numberline {10.6}Multicentre Research}{12}\protected@file@percent }
\@writefile{toc}{\contentsline {subsection}{\numberline {10.7}Storage and Data Privacy Protection}{13}\protected@file@percent }
\@writefile{toc}{\contentsline {section}{\numberline {11}Publication}{13}\protected@file@percent }
\bibstyle{abbrv}
\bibdata{BFR}
\bibcite{Abe2012}{1}
\bibcite{Bloomfield1994}{2}
\bibcite{Bongiovanni1990}{3}
\bibcite{Erimaki2008}{4}
\bibcite{Falla2014}{5}
\bibcite{Fry2010}{6}
\bibcite{Fujita2007}{7}
\bibcite{Gandevia1996}{8}
\bibcite{Gandevia1990}{9}
\bibcite{Garland2002}{10}
\bibcite{Grey2001}{11}
\bibcite{Gundermann2012}{12}
\bibcite{HENNEMAN1965}{13}
\bibcite{Hermens2000}{14}
\bibcite{Holobar2007}{15}
\bibcite{Kernell1982a}{16}
\bibcite{Kernell1982}{17}
\bibcite{Loenneke2012}{18}
\bibcite{Macefield1991}{19}
\bibcite{Macefield1993}{20}
\bibcite{Merletti2004}{21}
\bibcite{Merletti2003}{22}
\bibcite{Merletti1984}{23}
\bibcite{Sawczuk1997}{24}
\bibcite{Spielmann1993}{25}
\bibcite{Taylor2000}{26}
\bibcite{Testa2017}{27}
\bibcite{Thiebaud2013}{28}
\bibcite{Yanagisawa2017}{29}
\bibcite{Yasuda2014}{30}
\bibcite{Yasuda2013}{31}
\bibcite{Yavuz2015}{32}
\@writefile{toc}{\contentsline {section}{\numberline {12}Signatures}{16}\protected@file@percent }
\@writefile{toc}{\contentsline {section}{\numberline {13}Appendix: Informed Consent Form}{17}\protected@file@percent }
\babel@aux{ngerman}{}
\babel@aux{british}{}
\@writefile{toc}{\contentsline {section}{\numberline {14}Appendix: Data collection sheet and case report}{21}\protected@file@percent }
\@writefile{toc}{\contentsline {section}{\numberline {15}Appendix: Informative material for the volunteers}{25}\protected@file@percent }
\babel@aux{ngerman}{}
\babel@aux{british}{}
