\relax 
\providecommand\hyper@newdestlabel[2]{}
\providecommand\HyperFirstAtBeginDocument{\AtBeginDocument}
\HyperFirstAtBeginDocument{\ifx\hyper@anchor\@undefined
\global\let\oldcontentsline\contentsline
\gdef\contentsline#1#2#3#4{\oldcontentsline{#1}{#2}{#3}}
\global\let\oldnewlabel\newlabel
\gdef\newlabel#1#2{\newlabelxx{#1}#2}
\gdef\newlabelxx#1#2#3#4#5#6{\oldnewlabel{#1}{{#2}{#3}}}
\AtEndDocument{\ifx\hyper@anchor\@undefined
\let\contentsline\oldcontentsline
\let\newlabel\oldnewlabel
\fi}
\fi}
\global\let\hyper@last\relax 
\gdef\HyperFirstAtBeginDocument#1{#1}
\providecommand\HyField@AuxAddToFields[1]{}
\providecommand\HyField@AuxAddToCoFields[2]{}
\newcplabel{^_1}{1}
\citation{Abe2012}
\citation{Loenneke2012a}
\citation{Mauritz1980}
\citation{Loenneke2012,Abe2012,Yanagisawa2017}
\citation{Thiebaud2013}
\citation{murphy2019}
\citation{hughes2017}
\citation{Yanagisawa2017}
\citation{Loenneke2012a}
\citation{Fujita2007,Gundermann2012,Fry2010}
\citation{Yasuda2013,Yasuda2014}
\citation{manini2009,Loenneke2012a}
\citation{manini2009}
\citation{grey2001}
\@writefile{toc}{\contentsline {section}{\numberline {1}Introduction}{2}{section.1}\protected@file@percent }
\citation{Merletti2004}
\citation{Merletti2004}
\citation{deLuca1982}
\citation{halliday1958finger,laine2013neural,laine2014task,lippold1970oscillation}
\citation{williamson2005pain}
\@writefile{toc}{\contentsline {section}{\numberline {2}Materials and methods}{3}{section.2}\protected@file@percent }
\@writefile{toc}{\contentsline {subsection}{\numberline {{2.1}}Participants}{3}{subsection.2.1}\protected@file@percent }
\@writefile{toc}{\contentsline {subsection}{\numberline {{2.2}}Data recording}{3}{subsection.2.2}\protected@file@percent }
\citation{Hermens2000}
\citation{Hermens2000}
\citation{Pickering1988}
\@writefile{toc}{\contentsline {subsection}{\numberline {{2.3}}Experimental Tasks}{4}{subsection.2.3}\protected@file@percent }
\citation{welch1967}
\citation{yavuz2015,rosenberg1989}
\@writefile{toc}{\contentsline {subsection}{\numberline {{2.4}}Data analysis}{5}{subsection.2.4}\protected@file@percent }
\citation{myers2004,dai2017}
\citation{Hermens2000}
\citation{Merletti2004}
\citation{farina2004methods,sbriccoli2009non,klotz2019modelling}
\citation{Falla2003fatigue}
\newlabel{eq_AUC}{{1}{6}{Data analysis}{equation.2.1}{}}
\@writefile{toc}{\contentsline {section}{\numberline {3}Results}{7}{section.3}\protected@file@percent }
\@writefile{toc}{\contentsline {section}{\numberline {4}Discussion}{8}{section.4}\protected@file@percent }
\citation{husmann2018}
\citation{loenneke2015}
\citation{Yanagisawa2017,Loenneke2012a}
\citation{halliday1958finger,laine2013neural,laine2014task,lippold1970oscillation}
\citation{deLuca1982}
\citation{manini2009,amann2009opioid,blain2017limitation}
\citation{amann2009opioid,blain2017limitation}
\citation{grey2001,christakos2006,erimaki2008coherent}
\citation{farina2012}
\citation{Merletti2004}
\citation{fatela2019,hyngstrom2018}
\citation{ishizaka2019,loenneke2015,takarada2000effects}
\citation{dankel2018}
\citation{teixeira2018}
\citation{manini2009,Loenneke2012a}
\citation{hyngstrom2018}
\citation{Merletti1984}
\citation{manini2009}
\citation{sharma2015}
\citation{taylor2016}
\citation{Sousa2017}
\citation{Roehrle2019}
\citation{heidlauf2016multi,klotz2019modelling,schmid2019characterization}
\citation{Koch2020}
\citation{Roehrle2017,Valentin2018}
\@writefile{toc}{\contentsline {section}{\numberline {5}Conclusions}{11}{section.5}\protected@file@percent }
\providecommand*\caption@xref[2]{\@setref\relax\@undefined{#1}}
\newlabel{anthr_table}{{1}{12}{}{table.caption.2}{}}
\newlabel{table_discomfort}{{2}{12}{}{table.caption.3}{}}
\bibstyle{frontiersinSCNS_ENG_HUMS}
\bibdata{BFR}
\bibcite{Abe2012}{{1}{2012}{{Abe et~al.}}{{Abe, Loenneke, Fahs, Rossow, Thiebaud, and Bemben}}}
\bibcite{amann2009opioid}{{2}{2009}{{Amann et~al.}}{{Amann, Proctor, Sebranek, Pegelow, and Dempsey}}}
\bibcite{blain2017limitation}{{3}{2017}{{Blain and Hureau}}{{}}}
\bibcite{christakos2006}{{4}{2006}{{Christakos et~al.}}{{Christakos, Papadimitriou, and Erimaki}}}
\bibcite{dai2017}{{5}{2017}{{Dai et~al.}}{{Dai, Suresh, Suresh, Rymer, and Hu}}}
\bibcite{dankel2018}{{6}{2018}{{Dankel et~al.}}{{Dankel, Buckner, Jessee, Mattocks, Mouser, Counts et~al.}}}
\bibcite{deLuca1982}{{7}{1982}{{De~Luca et~al.}}{{De~Luca, LeFever, McCue, and Xenakis}}}
\bibcite{erimaki2008coherent}{{8}{2008}{{Erimaki and Christakos}}{{}}}
\bibcite{Falla2003fatigue}{{9}{2003}{{Falla et~al.}}{{Falla, Rainoldi, Merletti, and Jull}}}
\bibcite{farina2004methods}{{10}{2004}{{Farina and Merletti}}{{}}}
\bibcite{farina2012}{{11}{2012}{{Farina et~al.}}{{Farina, Negro, Gizzi, and Falla}}}
\bibcite{fatela2019}{{12}{2019}{{Fatela et~al.}}{{Fatela, Mendonca, Veloso, Avela, and Mil-Homens}}}
\bibcite{Fry2010}{{13}{2010}{{Fry et~al.}}{{Fry, Glynn, Drummond, Timmerman, Fujita, Abe et~al.}}}
\bibcite{Fujita2007}{{14}{2007}{{Fujita et~al.}}{{Fujita, Abe, Drummond, Cadenas, Dreyer, Sato et~al.}}}
\bibcite{grey2001}{{15}{2001}{{Grey et~al.}}{{Grey, Ladouceur, Andersen, Nielsen, and Sinkj{\ae }r}}}
\bibcite{Gundermann2012}{{16}{2012}{{Gundermann et~al.}}{{Gundermann, Fry, Dickinson, Walker, Timmerman, Drummond et~al.}}}
\bibcite{halliday1958finger}{{17}{1958}{{Halliday and Redfearn}}{{}}}
\bibcite{heidlauf2016multi}{{18}{2016}{{Heidlauf et~al.}}{{Heidlauf, Klotz, Rode, Altan, Bleiler, Siebert et~al.}}}
\bibcite{Hermens2000}{{19}{2000}{{Hermens et~al.}}{{Hermens, Freriks, Disselhorst-Klug, and Rau}}}
\bibcite{hughes2017}{{20}{2017}{{Hughes et~al.}}{{Hughes, Paton, Rosenblatt, Gissane, and Patterson}}}
\bibcite{husmann2018}{{21}{2018}{{Husmann et~al.}}{{Husmann, Mittlmeier, Bruhn, Zschorlich, and Behrens}}}
\bibcite{hyngstrom2018}{{22}{2018}{{Hyngstrom et~al.}}{{Hyngstrom, Murphy, Nguyen, Schmit, Negro, Gutterman et~al.}}}
\bibcite{ishizaka2019}{{23}{2019}{{Ishizaka et~al.}}{{Ishizaka, Uematsu, Mizushima, Nozawa, Katayanagi, Matsumoto et~al.}}}
\bibcite{klotz2019modelling}{{24}{2019}{{Klotz et~al.}}{{Klotz, Gizzi, Yavuz, and R{\"o}hrle}}}
\bibcite{Koch2020}{{25}{2020}{{Koch et~al.}}{{Koch, Schneider, Helmig, and Jenny}}}
\bibcite{laine2014task}{{26}{2014}{{Laine et~al.}}{{Laine, Yavuz, and Farina}}}
\bibcite{laine2013neural}{{27}{2013}{{Laine et~al.}}{{Laine, Negro, and Farina}}}
\bibcite{lippold1970oscillation}{{28}{1970}{{Lippold}}{{}}}
\bibcite{Loenneke2012}{{29}{2012{a}}{{Loenneke et~al.}}{{Loenneke, Abe, Wilson, Ugrinowitsch, and Bemben}}}
\bibcite{loenneke2015}{{30}{2015}{{Loenneke et~al.}}{{Loenneke, Kim, Fahs, Thiebaud, Abe, Larson et~al.}}}
\bibcite{Loenneke2012a}{{31}{2012{b}}{{Loenneke et~al.}}{{Loenneke, Wilson, Mar{\'{i}}n, Zourdos, and Bemben}}}
\bibcite{manini2009}{{32}{2009}{{Manini and Clark}}{{}}}
\bibcite{Mauritz1980}{{33}{1980}{{Mauritz and Dietz}}{{}}}
\bibcite{Merletti2004}{{34}{2004}{{Merletti et~al.}}{{Merletti, Parker, and Parker}}}
\bibcite{Merletti1984}{{35}{1984}{{Merletti et~al.}}{{Merletti, Sabbahi, and {De Luca}}}}
\bibcite{murphy2019}{{36}{2019}{{Murphy et~al.}}{{Murphy, Durand, Negro, Farina, Hunter, Schmit et~al.}}}
\bibcite{myers2004}{{37}{2004}{{Myers et~al.}}{{Myers, Erim, and Lowery}}}
\bibcite{Pickering1988}{{38}{1988}{{Pickering et~al.}}{{Pickering, James, Boddie, Harshfield, Blank, and Laragh}}}
\bibcite{Roehrle2017}{{39}{2017}{{R{\"o}hrle et~al.}}{{R{\"o}hrle, Sprenger, and Schmitt}}}
\bibcite{Roehrle2019}{{40}{2019}{{R{\"o}hrle et~al.}}{{R{\"o}hrle, Yavuz, Klotz, Negro, and Heidlauf}}}
\bibcite{rosenberg1989}{{41}{1989}{{Rosenberg et~al.}}{{Rosenberg, Amjad, Breeze, Brillinger, and Halliday}}}
\bibcite{sbriccoli2009non}{{42}{2009}{{Sbriccoli et~al.}}{{Sbriccoli, Sacchetti, Felici, Gizzi, Lenti, Scotto et~al.}}}
\bibcite{schmid2019characterization}{{43}{2019}{{Schmid et~al.}}{{Schmid, Klotz, Siebert, and R{\"o}hrle}}}
\bibcite{sharma2015}{{44}{2015}{{Sharma et~al.}}{{Sharma, Marsh, Cunniffe, Cardinale, Yellon, and Davidson}}}
\bibcite{Sousa2017}{{45}{2017}{{Sousa et~al.}}{{Sousa, Neto, Santos, Ara{\'{u}}jo, Silva, and Cirilo-Sousa}}}
\bibcite{takarada2000effects}{{46}{2000}{{Takarada et~al.}}{{Takarada, Takazawa, Sato, Takebayashi, Tanaka, and Ishii}}}
\bibcite{taylor2016}{{47}{2016}{{Taylor et~al.}}{{Taylor, Amann, Duchateau, Meeusen, and Rice}}}
\bibcite{teixeira2018}{{48}{2018}{{Teixeira et~al.}}{{Teixeira, Barroso, Silva-Batista, Laurentino, Loenneke, Roschel et~al.}}}
\bibcite{Thiebaud2013}{{49}{2013}{{Thiebaud et~al.}}{{Thiebaud, Yasuda, Loenneke, and Abe}}}
\bibcite{Valentin2018}{{50}{2018}{{Valentin et~al.}}{{Valentin, Sprenger, Pfl{\"u}ger, and R{\"o}hrle}}}
\bibcite{welch1967}{{51}{1967}{{Welch}}{{}}}
\bibcite{williamson2005pain}{{52}{2005}{{Williamson and Hoggart}}{{}}}
\bibcite{Yanagisawa2017}{{53}{2017}{{Yanagisawa and Sanomura}}{{}}}
\bibcite{Yasuda2014}{{54}{2014}{{Yasuda et~al.}}{{Yasuda, Fukumura, Fukuda, Iida, Imuta, Sato et~al.}}}
\bibcite{Yasuda2013}{{55}{2013}{{Yasuda et~al.}}{{Yasuda, Loenneke, Ogasawara, and Abe}}}
\bibcite{yavuz2015}{{56}{2015}{{Yavuz et~al.}}{{Yavuz, Negro, Falla, and Farina}}}
\global\@namedef{@lastpage@}{16}
\@writefile{lof}{\contentsline {figure}{\numberline {1}{\ignorespaces Experimental setup. The subject placed their right arm in the ALF apparatus (A) and were secured with an inextensible strap, softened by a foam cushion (B). On the left it is possible to observe the visual feedback screen (C). The HDEMG array was placed underneath the blood pressure cuff (only the pre-amplifier is visible in the picture, D). \relax }}{17}{figure.caption.11}\protected@file@percent }
\newlabel{fig_exp_apparatus}{{1}{17}{Experimental setup. The subject placed their right arm in the ALF apparatus (A) and were secured with an inextensible strap, softened by a foam cushion (B). On the left it is possible to observe the visual feedback screen (C). The HDEMG array was placed underneath the blood pressure cuff (only the pre-amplifier is visible in the picture, D). \relax }{figure.caption.11}{}}
\@writefile{lof}{\contentsline {figure}{\numberline {2}{\ignorespaces Experimental protocol: the tasks consisted of 3 repetitions of a ramp and hold exercise. Each ramp lasted for 15 seconds, followed by a 15 seconds hold. Three levels of pressure and torque were randomized leading to a total of 9 experimental test cases. \relax }}{18}{figure.caption.12}\protected@file@percent }
\newlabel{fig_exp_sequence}{{2}{18}{Experimental protocol: the tasks consisted of 3 repetitions of a ramp and hold exercise. Each ramp lasted for 15 seconds, followed by a 15 seconds hold. Three levels of pressure and torque were randomized leading to a total of 9 experimental test cases. \relax }{figure.caption.12}{}}
\@writefile{lof}{\contentsline {figure}{\numberline {3}{\ignorespaces Subjects' reported discomfort. NRS is displayed as average and standard deviation across all the subjects for each condition and trial. It is possible to notice that the torque level had a relatively smaller effect on discomfort compared to the continuous application of blood flow restriction either partial (LP) or complete (HP). HP was responsible for the highest discomfort scores over time. It is important to notice that 4 subjects did not complete the last trial at 50\%MVC HP, and they were asked to rate their discomfort at failure. Green asterisks \textbf  {(\leavevmode {\color  {green}*}}) indicate statistical significance against AP1 for the same level of torque, green tilde (\textbf  {\leavevmode {\color  {green}\textasciitilde }}) indicates significance against AP3, red section sign (\textbf  {\leavevmode {\color  {red}§}}) against HP1, and the blue hash sign (\textbf  {\leavevmode {\color  {blue}\#}}) against LP1.\relax }}{19}{figure.caption.13}\protected@file@percent }
\newlabel{fig_discomfort_subplot}{{3}{19}{Subjects' reported discomfort. NRS is displayed as average and standard deviation across all the subjects for each condition and trial. It is possible to notice that the torque level had a relatively smaller effect on discomfort compared to the continuous application of blood flow restriction either partial (LP) or complete (HP). HP was responsible for the highest discomfort scores over time. It is important to notice that \nfailHP subjects did not complete the last trial at 50\%MVC HP, and they were asked to rate their discomfort at failure. Green asterisks \textbf {(\textcolor {green}{*}}) indicate statistical significance against AP1 for the same level of torque, green tilde (\textbf {\textcolor {green}{\textasciitilde }}) indicates significance against AP3, red section sign (\textbf {\textcolor {red}{§}}) against HP1, and the blue hash sign (\textbf {\textcolor {blue}{\#}}) against LP1.\relax }{figure.caption.13}{}}
\@writefile{lof}{\contentsline {figure}{\numberline {4}{\ignorespaces Normalized power spectral density for each condition. The third trial of the high pressure (HP) and torque level 50\% is distinguishable decreased compared to the other conditions and trials. Furthermore, the error decreased clearly. Shaded areas showing the individual bandwidths from which the AUC\textsubscript  {$\alpha $} (dark) and AUC\textsubscript  {$\delta $} (light) were computed. The rows of the grid represent the pressure levels, whereas the columns are assigned to the different torque levels. The data is represented as average (solid line) and standard error (shade) across all the subjects for the three repetitions of the task. Trial 1 is represented in green, trial 2, in blue, and trial 3, in red. The dashed horizontal line depicts the 95\% confidence level as a threshold indicating significance.\relax }}{20}{figure.caption.14}\protected@file@percent }
\newlabel{fig_spectrum}{{4}{20}{Normalized power spectral density for each condition. The third trial of the high pressure (HP) and torque level 50\% is distinguishable decreased compared to the other conditions and trials. Furthermore, the error decreased clearly. Shaded areas showing the individual bandwidths from which the AUC\textsubscript {$\alpha $} (dark) and AUC\textsubscript {$\delta $} (light) were computed. The rows of the grid represent the pressure levels, whereas the columns are assigned to the different torque levels. The data is represented as average (solid line) and standard error (shade) across all the subjects for the three repetitions of the task. Trial 1 is represented in green, trial 2, in blue, and trial 3, in red. The dashed horizontal line depicts the 95\% confidence level as a threshold indicating significance.\relax }{figure.caption.14}{}}
\@writefile{lof}{\contentsline {figure}{\numberline {5}{\ignorespaces Area under the curve (AUC) the $\delta $- (asterisks, dotted line) and $\alpha $-band (diamonds, solid line). The columns represent the different torque levels. Within each level, the AUC for all three trials was calculated as the average with standard error. The power spectrum for the AUC has been normalized, previously. Whereas the $\delta $-band is decreasing for increasing torque levels, the $\alpha $-band is increasing.\relax }}{21}{figure.caption.15}\protected@file@percent }
\newlabel{fig_AUCindividual}{{5}{21}{Area under the curve (AUC) the $\delta $- (asterisks, dotted line) and $\alpha $-band (diamonds, solid line). The columns represent the different torque levels. Within each level, the AUC for all three trials was calculated as the average with standard error. The power spectrum for the AUC has been normalized, previously. Whereas the $\delta $-band is decreasing for increasing torque levels, the $\alpha $-band is increasing.\relax }{figure.caption.15}{}}
\@writefile{lof}{\contentsline {figure}{\numberline {6}{\ignorespaces Normalized root mean square value for each condition. Rows represent different levels of pressure, columns, different levels of torque. The data is represented as average and standard error across all the subjects for the three repetitions of the task. Trial 1 is represented in green, trial 2, in blue, and trial 3, in red. Data is normalized with respect to the MVC value. \relax }}{22}{figure.caption.16}\protected@file@percent }
\newlabel{fig_RMS}{{6}{22}{Normalized root mean square value for each condition. \dida \didanormMVC \relax }{figure.caption.16}{}}
\@writefile{lof}{\contentsline {figure}{\numberline {7}{\ignorespaces EMG median frequency for each condition. The values represent the average of all included channels across the matrix. It is worth noting the decrement of the variable at 30\% MVC for LP3 and at 50\% MVC for both LP and HP respectively, starting from Trial 2. Rows represent different levels of pressure, columns, different levels of torque. The data is represented as average and standard error across all the subjects for the three repetitions of the task. Trial 1 is represented in green, trial 2, in blue, and trial 3, in red. \relax }}{23}{figure.caption.17}\protected@file@percent }
\newlabel{fig_MDF}{{7}{23}{EMG median frequency for each condition. The values represent the average of all included channels across the matrix. It is worth noting the decrement of the variable at 30\% MVC for LP3 and at 50\% MVC for both LP and HP respectively, starting from Trial 2. \dida \relax }{figure.caption.17}{}}
\@writefile{lof}{\contentsline {figure}{\numberline {8}{\ignorespaces Average muscle fibres conduction velocity for each condition. It is possible to notice a decrease in the MFCV, which is most remarkable at trial 3 for 30 and 50\% MVC for LP and for both LP and HP, respectively. Rows represent different levels of pressure, columns, different levels of torque. The data is represented as average and standard error across all the subjects for the three repetitions of the task. Trial 1 is represented in green, trial 2, in blue, and trial 3, in red. \relax }}{24}{figure.caption.18}\protected@file@percent }
\newlabel{fig_MFCV}{{8}{24}{Average muscle fibres conduction velocity for each condition. It is possible to notice a decrease in the MFCV, which is most remarkable at trial 3 for 30 and 50\% MVC for LP and for both LP and HP, respectively. \dida \relax }{figure.caption.18}{}}
