\relax 
\@writefile{toc}{\contentsline {section}{\numberline {1}Introduction}{2}}
\@writefile{toc}{\contentsline {section}{\numberline {2}Materials and methods}{2}}
\@writefile{toc}{\contentsline {section}{\numberline {3}Results}{2}}
\@writefile{toc}{\contentsline {section}{\numberline {4}Discussion}{2}}
\@writefile{toc}{\contentsline {section}{\numberline {5}Conclusion}{2}}
\@writefile{toc}{\contentsline {section}{\numberline {6}References}{2}}
\@writefile{toc}{\contentsline {section}{\numberline {7}Figures}{2}}
\@writefile{toc}{\contentsline {section}{\numberline {8}Tables}{2}}
\@writefile{toc}{\contentsline {section}{\numberline {9}Figures captions}{2}}
\@writefile{toc}{\contentsline {section}{\numberline {10}Tables captions}{2}}
